<?xml version="1.0" encoding="utf-8"?>
<!-- Generator: Adobe Illustrator 22.1.0, SVG Export Plug-In . SVG Version: 6.00 Build 0)  -->
<svg version="1.1" id="Layer_1" xmlns="http://www.w3.org/2000/svg" xmlns:xlink="http://www.w3.org/1999/xlink" x="0px" y="0px"
	 viewBox="0 0 841.9 303.5" style="enable-background:new 0 0 841.9 303.5;" xml:space="preserve">
<g>
	<path d="M814.9,190.2c-4.8-0.5-13.7-0.6-18.4-0.6c-12.8,0-27,7.5-27,29c0,21.9,11.2,31.1,27,31.1c7.3,0,12.6-0.6,18.4-1.2v-12.3
		c-5.1,0.6-8.9,1-15.4,1c-7.5,0-14.9-2.6-14.9-12.3c0-0.1,26.7-0.1,26.7-0.1v-11.7h-26.4c0-6,4.9-11.1,14.7-11.1
		c8.5,0,15.4,0.7,15.4,0.7S815,190.2,814.9,190.2 M724.4,201.5h20.1V216h14.1v-26.5h-49v40.7c0,11,9,20.7,26.3,20.7
		c12,0,19.5-3.6,24.2-7.8l-6-11.4c-3.3,3.3-10.5,5.7-17,5.7c-7,0-12.6-3.3-12.6-10V201.5z M705,213.7c0.6-18.1-8.3-25.2-22.6-25.2
		c-11.2,0-23,6.8-23,23.5v37.7h14.7v-37.8c0-7.3,3-10.9,8.6-10.9c5.9,0,8.4,4.6,8.3,12.7H705z M614.5,251c6.5,0,13.3-3,17.7-8.6v7.3
		h14.7v-60.2h-14.7v33.3c0,7.5-7.3,14.3-15.4,14.3h-0.5c-7.3-0.2-9.4-5.7-9.4-13v-34.7h-14.7v35.4c0,14.2,6.4,25.9,21.9,26.2H614.5z
		 M549.2,238.2c-11.1,0-15.6-7.5-15.6-17.4c0-9.9,4.4-19.4,15.6-19.4h0.7c10.6,0.4,14.8,8.8,14.8,18.4c0,9.8-4.3,18.1-15.1,18.4
		H549.2z M519.8,249.7h58.6v-60.2h-58.6V249.7z M453.9,250.6h28.4c16-0.1,28.6-9.9,28.6-25.7c0-15.8-12.2-26.1-28.6-26.3h-28.4
		c-10.6,0-14.3-5.3-14.3-11.2c0-6.4,7-10.7,13.5-10.6h28.6c5.6,0.2,11.5,3.6,14.3,9.1l12.7-7.8c-5.7-10.2-15.8-14.8-27.3-14.9H453
		c-13.9,0-29,8.4-29,24.1c0,16.2,13.3,26.2,29.9,26.2h28.3c8.9,0,13.2,5.4,13.2,11.2c0,7.5-4.3,11.6-13.1,11.7h-28.4
		c-9.1,0-16.9-5.2-17.9-14.7l-15.2,3.8C423.5,242.4,438.8,250.6,453.9,250.6 M318.1,249.7h14l29-44.1v44.1h14.7v-60.2h-18.5
		l-24.4,37.8v-37.8h-14.7V249.7z M263.9,213.7c1.2-7.3,5.3-12.7,13.5-12.7h0.2c8.5,0.1,12.7,4.7,13.7,12.7H263.9z M278.5,250.4h0.2
		c9.9,0,17.8-2.8,24.8-10.4l-10.1-8.9c-4.3,4.4-8.5,5.6-14.9,5.6h-0.1c-8.8,0-13.5-4.9-14.4-12.3h41.4c0,0,0.5-1.9,0.5-4.6
		c0-15.4-6.4-31-28.1-31.1h-0.2c-19.6,0-29,15.4-29,31.2C248.3,236,258.4,250.4,278.5,250.4 M148.6,237.3c-9.9,0-14.3-7.7-14.3-17.8
		c0-10.1,4.4-18.1,14.3-18.1h60.9c9.5,0,14,8.1,14,18.1c0,10-4.4,17.8-14,17.8H148.6z M120.1,276.1H135v-32.5
		c4.2,5.2,10.7,7.3,17.3,7.3h61c16,0,25.1-14.9,25.1-31.4c0-16.5-9.1-31.4-25.2-31.4h-60.9c-6.4,0-12.7,1.7-17.3,7.3v-6.1h-14.9
		V276.1z M56.6,216.7h16.7v-18.9H56.6V216.7z M25.1,249.7h79.4v-85.1H25.1V249.7z M40,179.4h49.8v55.4H40V179.4z"/>
	<path d="M780.5,103.7V92.1h22v6.7L780.5,103.7z M817,115.2V55h-48.8v12.5h34.1v13.7h-35.8v34.1h14.6l22.5-6.7l1.4,6.7H817z
		 M721.7,59.9c0-13.6,3-20.1,9-20.1c4.8,0,8.8,4.8,8.8,16.9c0,11.2-4.3,19.6-13.5,29.3C723.3,79.5,721.7,71,721.7,59.9 M746.5,116.5
		h2.6c4.4,0,8-1.2,8-1.2v-12.7c0,0-5.3,0.4-6.4,0.4h-2.2c-4.9,0-9.8-1.6-14.1-5.1C745.6,86,754,72.3,754,55c0-15.4-7-27.5-23.2-27.5
		c-15.8,0-23.7,13.8-23.7,31.9c0,16,3.2,28,8.1,36.8c-3.5,3.1-7.3,6.3-11.5,9.8l9,11c3.8-3,7.7-6.2,11.5-9.4
		C731.4,113.9,739.7,116.5,746.5,116.5 M573.5,103.7c-11.1,0-15.6-8.5-15.6-18.4c0-9.9,4.4-18.4,15.6-18.4h92
		c10.6,0.4,14.8,8.8,14.8,18.4c0,9.8-4.3,18.1-15.1,18.4H573.5z M573.5,116.5h91.9c18.3-0.4,30.9-14.3,30.9-31.1
		c0-16.9-12.5-30.9-30.9-31.1h-91.9c-18.6,0-31.5,14.1-31.5,31.1S554.9,116.5,573.5,116.5 M529.1,115.2V55h-14.7v47.4h-21.1V55
		h-14.7v60.2H529.1z M377.4,116.5h66.4c11.9-0.1,21-6.8,24.9-17.9l-13.3-5.1c-1.6,5.6-6,9-11.9,9.1h-66.3
		c-10.2,0-14.1-8.3-14.1-17.4c0-9,4-17.4,14.1-17.4h66.3c5.9,0.1,10.2,3.5,11.9,9.1l14-5.4C464.8,60.8,456.3,54,444.3,54h-67
		c-19.6,0-29,15.4-29,31.2C348.2,101.2,357.7,116.5,377.4,116.5 M311.9,116.2c16.3,0,29.1-9.8,29.1-25.7c0-15.9-12.7-20.2-24.6-24.6
		c-11.9-4.3-18.9-7-18.9-13c0-6.4,7.3-10.6,13.1-10.6c6.2,0,12.5,3.3,15.4,9.1l12.7-7.8c-5.8-10.4-16.5-14.9-28.1-14.9
		c-14,0-28.6,8.8-28.6,24.1c0,16.2,15.6,21.2,28,25.6c8.6,3,15.4,5.9,15.4,11.9c0,7.7-4.6,11.7-13.6,11.7c-9.1,0-16.9-5.2-17.9-14.7
		l-15.2,3.8C281.6,107.9,296.9,116.2,311.9,116.2 M206.9,104h-99.6c-5.2-0.2-8.8-3.1-8.8-6.8c0-3.8,3.8-7.3,10.5-7.3h113.6
		C222.3,97.4,215.3,104,206.9,104 M204.2,116.5c8,0,14.2-2.3,19.4-9.9l1.6,8.6h11.5V78.7c0-14.3-9.1-24.3-24.9-24.7h-99.9
		c-11.4,0-19.1,4.6-25.3,13l11.2,8.1c2.3-4.2,7.5-8.3,13.6-8.3h99.8c8,0.4,11.5,5.1,11.5,12.5H108.1c-13.5,0-24.7,5.3-24.7,17.9
		c0,11.5,9.9,18.9,21,19.3H204.2z M24.9,115.2h52v-14.4H44.4l21.7-70.4H50.8L24.9,115.2z"/>
</g>
</svg>
